初学者使用R语言读取excel/csv/txt的注意事项 - 菜鸟程序员博客
…
library(readxl)

然后我们就可以读入这个文件了，读取时，你必须指明你的文件在哪里！ 如果文件路径没写对，就会出现下面这种类似的报错，一般情况下，它会告诉你，你的路径没写对，或者找不到这个文件，这个文件不存在，不能打开连接等等错误！！

tmp <- read_xlsx("E:/data.xlsx", col_names = T)

## Error: `path` does not exist: ‘E:/R/data.xlsx’

这个时候你就要去确认下，你的这个data.xlsx文件到底在哪里！当你给它正确的路径时，它就不会报错。还要注意/ \ , " "，这些标点一定要在英文状态下输入！

tmp <- read_xlsx("E:/R/data.xlsx", col_names = T)

tmp
## # A tibble: 29 × 6
##     编号 治疗方式 性别   年龄 收缩压  血糖
##    <dbl> <chr>    <chr> <dbl>  <dbl> <dbl>
##  1     1 方法1    男       56    134   6.3
##  2     2 方法2    女       45    123   4.6
##  3     3 方法3    男       67    112   7.4
##  4     4 方法4    女       56    113   8.5
##  5     5 方法5    男       78    115   6.3
##  6     6 方法6    女       56    116   4.6
##  7     7 方法7    男       67    134   7.4
##  8     8 方法8    女       45    123   8.5
##  9     9 方法9    男       67    112   6.3
## 10    10 方法10   女       87    113   4.6
## # … with 19 more rows
## # ℹ Use `print(n = ...)` to see more rows
…
# haven包读取
library(haven)
spss <- read_sav("例03-05.sav")

spss
## # A tibble: 36 × 2
##       no    hb
##    <dbl> <dbl>
##  1     1   112
##  2     2   137
##  3     3   129
##  4     4   126
##  5     5    88
##  6     6    90
##  7     7   105
##  8     8   178
##  9     9   130
## 10    10   128
## # … with 26 more rows
## # ℹ Use `print(n = ...)` to see more rows
…
